Complications
…
---

```r
ccahs_block_analytical_unstd |> 
  summarize(across(where(is.numeric), list(mean = mean, sd = sd, min = min, max = max))) |>
  pivot_longer(everything()) |>
  mutate(measure = str_extract(name, "[a-z]+$"),
         name = str_remove(name, "_[a-z]+$"),
         value = round(value, 2)) |>
  pivot_wider(names_from = measure, values_from = value)
```

```
## # A tibble: 26 × 5
##    name                                      mean    sd   min    max
##    <chr>                                    <dbl> <dbl> <dbl>  <dbl>
##  1 CRIME_homicide_2004_2006                  0.1   0.35  0      4   
##  2 CRIME_assault_battery_gun_2004_2006       1.02  1.75  0     18   
##  3 CRIME_homicide_assault_battery_gun_2004…  1.11  1.88  0     21   
##  4 CRIME_robbery_2004_2006                   3.18  4.39  0     44   
##  5 CRIME_violent_2004_2006                   6.42  8.34  0     79   
##  6 CRIME_property_2004_2006                 20.3  24.6   0    315   
##  7 CE_hlm_1995                               0     1    -2.93   3   
##  8 CE_hlm_2001                              -0.02  1.01 -3.64   2.81
##  9 FAC_disadv_2000                           0     0.47 -1.12   1.68
## 10 FAC_stability_2000                        0     0.48 -1.16   0.98
## # ℹ 16 more rows
```
…
